C:\projects\epamHomework\homeworkkoshelia\crud\src\main\java\com\koshelia\service\MealServiceImpl.java
C:\projects\epamHomework\homeworkkoshelia\crud\src\main\java\com\koshelia\Transformer.java
C:\projects\epamHomework\homeworkkoshelia\crud\src\main\java\com\koshelia\ConnectionManager.java
C:\projects\epamHomework\homeworkkoshelia\crud\src\main\java\com\koshelia\model\User.java
C:\projects\epamHomework\homeworkkoshelia\crud\src\main\java\com\koshelia\model\Role.java
C:\projects\epamHomework\homeworkkoshelia\crud\src\main\java\com\koshelia\util\DateTimeUtil.java
C:\projects\epamHomework\homeworkkoshelia\crud\src\main\java\com\koshelia\repository\MealRepositoryImpl.java
C:\projects\epamHomework\homeworkkoshelia\crud\src\main\java\com\koshelia\web\user\ProfileRestController.java
C:\projects\epamHomework\homeworkkoshelia\crud\src\main\java\com\koshelia\model\annotations\PrimaryKey.java
C:\projects\epamHomework\homeworkkoshelia\crud\src\main\java\com\koshelia\util\NotFoundException.java
C:\projects\epamHomework\homeworkkoshelia\crud\src\main\java\com\koshelia\service\UserServiceImpl.java
C:\projects\epamHomework\homeworkkoshelia\crud\src\main\java\com\koshelia\web\user\AbstractUserController.java
C:\projects\epamHomework\homeworkkoshelia\crud\src\main\java\com\koshelia\service\MealService.java
C:\projects\epamHomework\homeworkkoshelia\crud\src\main\java\com\koshelia\model\annotations\Table.java
C:\projects\epamHomework\homeworkkoshelia\crud\src\main\java\com\koshelia\repository\UserRepository.java
C:\projects\epamHomework\homeworkkoshelia\crud\src\main\java\com\koshelia\model\annotations\PrimaryKeyComposite.java
C:\projects\epamHomework\homeworkkoshelia\crud\src\main\java\com\koshelia\model\MealWithExceed.java
C:\projects\epamHomework\homeworkkoshelia\crud\src\main\java\com\koshelia\model\Meal.java
C:\projects\epamHomework\homeworkkoshelia\crud\src\main\java\com\koshelia\repository\UserRepositoryImpl.java
C:\projects\epamHomework\homeworkkoshelia\crud\src\main\java\com\koshelia\web\meal\MealRestController.java
C:\projects\epamHomework\homeworkkoshelia\crud\src\main\java\com\koshelia\AuthorizedUser.java
C:\projects\epamHomework\homeworkkoshelia\crud\src\main\java\com\koshelia\web\MealServlet.java
C:\projects\epamHomework\homeworkkoshelia\crud\src\main\java\com\koshelia\web\UserServlet.java
C:\projects\epamHomework\homeworkkoshelia\crud\src\main\java\com\koshelia\repository\MealRepository.java
C:\projects\epamHomework\homeworkkoshelia\crud\src\main\java\com\koshelia\web\user\AdminRestController.java
C:\projects\epamHomework\homeworkkoshelia\crud\src\main\java\com\koshelia\model\annotations\Column.java
C:\projects\epamHomework\homeworkkoshelia\crud\src\main\java\com\koshelia\service\UserService.java
C:\projects\epamHomework\homeworkkoshelia\crud\src\main\java\com\koshelia\util\MealsUtil.java
C:\projects\epamHomework\homeworkkoshelia\crud\src\main\java\com\koshelia\util\Util.java
